%YAML 1.1
%TAG !u! tag:unity3d.com,2011:
--- !u!74 &7400000
AnimationClip:
  m_ObjectHideFlags: 0
  m_CorrespondingSourceObject: {fileID: 0}
  m_PrefabInternal: {fileID: 0}
  m_Name: cat_running
  serializedVersion: 6
  m_Legacy: 0
  m_Compressed: 0
  m_UseHighQualityCurve: 1
  m_RotationCurves: []
  m_CompressedRotationCurves: []
  m_EulerCurves: []
  m_PositionCurves: []
  m_ScaleCurves: []
  m_FloatCurves: []
  m_PPtrCurves:
  - curve:
    - time: 0
      value: {fileID: 21300000, guid: 8055199564d2495499d83b74b61301ea, type: 3}
    - time: 0.05
      value: {fileID: 21300000, guid: 6120fbfd75333ba4898ff78abbc654ca, type: 3}
    - time: 0.1
      value: {fileID: 21300000, guid: bab63f099264fec489f84af0cc698bf3, type: 3}
    - time: 0.15
      value: {fileID: 21300000, guid: 445f905919bd5f440806210fa9d7d796, type: 3}
    - time: 0.2
      value: {fileID: 21300000, guid: 7bc5bfa760e349f4182d0adc49991b6f, type: 3}
    - time: 0.25
      value: {fileID: 21300000, guid: 934cda3b73914c84b8de339d0cacf261, type: 3}
    - time: 0.3
      value: {fileID: 21300000, guid: 7dba7fe347f05ed439e31f3d93b74c28, type: 3}
    - time: 0.35
      value: {fileID: 21300000, guid: d8566c97c4927cd468f8e53786210705, type: 3}
    attribute: m_Sprite
    path: 
    classID: 212
    script: {fileID: 0}
  m_SampleRate: 20
  m_WrapMode: 0
  m_Bounds:
    m_Center: {x: 0, y: 0, z: 0}
    m_Extent: {x: 0, y: 0, z: 0}
  m_ClipBindingConstant:
    genericBindings:
    - serializedVersion: 2
      path: 0
      attribute: 0
      script: {fileID: 0}
      typeID: 212
      customType: 23
      isPPtrCurve: 1
    pptrCurveMapping:
    - {fileID: 21300000, guid: 8055199564d2495499d83b74b61301ea, type: 3}
    - {fileID: 21300000, guid: 6120fbfd75333ba4898ff78abbc654ca, type: 3}
    - {fileID: 21300000, guid: bab63f099264fec489f84af0cc698bf3, type: 3}
    - {fileID: 21300000, guid: 445f905919bd5f440806210fa9d7d796, type: 3}
    - {fileID: 21300000, guid: 7bc5bfa760e349f4182d0adc49991b6f, type: 3}
    - {fileID: 21300000, guid: 934cda3b73914c84b8de339d0cacf261, type: 3}
    - {fileID: 21300000, guid: 7dba7fe347f05ed439e31f3d93b74c28, type: 3}
    - {fileID: 21300000, guid: d8566c97c4927cd468f8e53786210705, type: 3}
  m_AnimationClipSettings:
    serializedVersion: 2
    m_AdditiveReferencePoseClip: {fileID: 0}
    m_AdditiveReferencePoseTime: 0
    m_StartTime: 0
    m_StopTime: 0.4
    m_OrientationOffsetY: 0
    m_Level: 0
    m_CycleOffset: 0
    m_HasAdditiveReferencePose: 0
    m_LoopTime: 1
    m_LoopBlend: 0
    m_LoopBlendOrientation: 0
    m_LoopBlendPositionY: 0
    m_LoopBlendPositionXZ: 0
    m_KeepOriginalOrientation: 0
    m_KeepOriginalPositionY: 1
    m_KeepOriginalPositionXZ: 0
    m_HeightFromFeet: 0
    m_Mirror: 0
  m_EditorCurves: []
  m_EulerEditorCurves: []
  m_HasGenericRootTransform: 0
  m_HasMotionFloatCurves: 0
  m_GenerateMotionCurves: 0
  m_Events: []
