%YAML 1.1
%TAG !u! tag:unity3d.com,2011:
--- !u!74 &7400000
AnimationClip:
  m_ObjectHideFlags: 0
  m_CorrespondingSourceObject: {fileID: 0}
  m_PrefabInternal: {fileID: 0}
  m_Name: cat_sliding
  serializedVersion: 6
  m_Legacy: 0
  m_Compressed: 0
  m_UseHighQualityCurve: 1
  m_RotationCurves: []
  m_CompressedRotationCurves: []
  m_EulerCurves: []
  m_PositionCurves: []
  m_ScaleCurves: []
  m_FloatCurves: []
  m_PPtrCurves:
  - curve:
    - time: 0
      value: {fileID: 21300000, guid: 924efdb46ed370b4b82cb5776a155565, type: 3}
    - time: 0.05
      value: {fileID: 21300000, guid: cd9c9dd2aedd19a4f928f0b8c765a231, type: 3}
    - time: 0.1
      value: {fileID: 21300000, guid: 7a6df4d260f662243a2ae9eaae1fd8af, type: 3}
    - time: 0.15
      value: {fileID: 21300000, guid: 81b803a918850424d9704d3eaf9be2fb, type: 3}
    - time: 0.2
      value: {fileID: 21300000, guid: cd35c89be8ed12a40a00d59ab7cb1c6c, type: 3}
    - time: 0.25
      value: {fileID: 21300000, guid: d33eb50989d03064c91db27abf37a2b8, type: 3}
    - time: 0.3
      value: {fileID: 21300000, guid: 3cab7c75d650d5e4699b7d5c702f291c, type: 3}
    - time: 0.35
      value: {fileID: 21300000, guid: 9adf721e0fa33424292a50c15e1e8526, type: 3}
    - time: 0.4
      value: {fileID: 21300000, guid: 0607d5f0313cdf64bb7ffb0c126f4423, type: 3}
    - time: 0.45
      value: {fileID: 21300000, guid: 62ae00782ffdd8b439b30a9acc721b21, type: 3}
    attribute: m_Sprite
    path: 
    classID: 212
    script: {fileID: 0}
  m_SampleRate: 20
  m_WrapMode: 0
  m_Bounds:
    m_Center: {x: 0, y: 0, z: 0}
    m_Extent: {x: 0, y: 0, z: 0}
  m_ClipBindingConstant:
    genericBindings:
    - serializedVersion: 2
      path: 0
      attribute: 0
      script: {fileID: 0}
      typeID: 212
      customType: 23
      isPPtrCurve: 1
    pptrCurveMapping:
    - {fileID: 21300000, guid: 924efdb46ed370b4b82cb5776a155565, type: 3}
    - {fileID: 21300000, guid: cd9c9dd2aedd19a4f928f0b8c765a231, type: 3}
    - {fileID: 21300000, guid: 7a6df4d260f662243a2ae9eaae1fd8af, type: 3}
    - {fileID: 21300000, guid: 81b803a918850424d9704d3eaf9be2fb, type: 3}
    - {fileID: 21300000, guid: cd35c89be8ed12a40a00d59ab7cb1c6c, type: 3}
    - {fileID: 21300000, guid: d33eb50989d03064c91db27abf37a2b8, type: 3}
    - {fileID: 21300000, guid: 3cab7c75d650d5e4699b7d5c702f291c, type: 3}
    - {fileID: 21300000, guid: 9adf721e0fa33424292a50c15e1e8526, type: 3}
    - {fileID: 21300000, guid: 0607d5f0313cdf64bb7ffb0c126f4423, type: 3}
    - {fileID: 21300000, guid: 62ae00782ffdd8b439b30a9acc721b21, type: 3}
  m_AnimationClipSettings:
    serializedVersion: 2
    m_AdditiveReferencePoseClip: {fileID: 0}
    m_AdditiveReferencePoseTime: 0
    m_StartTime: 0
    m_StopTime: 0.5
    m_OrientationOffsetY: 0
    m_Level: 0
    m_CycleOffset: 0
    m_HasAdditiveReferencePose: 0
    m_LoopTime: 1
    m_LoopBlend: 0
    m_LoopBlendOrientation: 0
    m_LoopBlendPositionY: 0
    m_LoopBlendPositionXZ: 0
    m_KeepOriginalOrientation: 0
    m_KeepOriginalPositionY: 1
    m_KeepOriginalPositionXZ: 0
    m_HeightFromFeet: 0
    m_Mirror: 0
  m_EditorCurves: []
  m_EulerEditorCurves: []
  m_HasGenericRootTransform: 0
  m_HasMotionFloatCurves: 0
  m_GenerateMotionCurves: 0
  m_Events: []
