%YAML 1.1
%TAG !u! tag:unity3d.com,2011:
--- !u!74 &7400000
AnimationClip:
  m_ObjectHideFlags: 0
  m_CorrespondingSourceObject: {fileID: 0}
  m_PrefabInternal: {fileID: 0}
  m_Name: cat_hurt
  serializedVersion: 6
  m_Legacy: 0
  m_Compressed: 0
  m_UseHighQualityCurve: 1
  m_RotationCurves: []
  m_CompressedRotationCurves: []
  m_EulerCurves: []
  m_PositionCurves: []
  m_ScaleCurves: []
  m_FloatCurves: []
  m_PPtrCurves:
  - curve:
    - time: 0
      value: {fileID: 21300000, guid: 7a856f20859662648953e8f52cce5bbf, type: 3}
    - time: 0.05
      value: {fileID: 21300000, guid: 84ffce779ea9acc4e94e07322451c7c6, type: 3}
    - time: 0.1
      value: {fileID: 21300000, guid: 22c3f50deaa2ed14fb4591fa7f48c907, type: 3}
    - time: 0.15
      value: {fileID: 21300000, guid: 8f216ec4a02a7284ea2779ca1469b0da, type: 3}
    - time: 0.2
      value: {fileID: 21300000, guid: 9106d760633e8994295c4f1cd530da4b, type: 3}
    - time: 0.25
      value: {fileID: 21300000, guid: b329138446616d64db9268e718696d9c, type: 3}
    - time: 0.3
      value: {fileID: 21300000, guid: 80130240d6f201d45831471ab6315e66, type: 3}
    - time: 0.35
      value: {fileID: 21300000, guid: e37ac4a408b87c34eb7fc7113ec1c2e3, type: 3}
    - time: 0.4
      value: {fileID: 21300000, guid: fa705345334b74f428dc4dbb57000f52, type: 3}
    - time: 0.45
      value: {fileID: 21300000, guid: f3f4bd331ca0a5c438348accddaf370a, type: 3}
    attribute: m_Sprite
    path: 
    classID: 212
    script: {fileID: 0}
  m_SampleRate: 20
  m_WrapMode: 0
  m_Bounds:
    m_Center: {x: 0, y: 0, z: 0}
    m_Extent: {x: 0, y: 0, z: 0}
  m_ClipBindingConstant:
    genericBindings:
    - serializedVersion: 2
      path: 0
      attribute: 0
      script: {fileID: 0}
      typeID: 212
      customType: 23
      isPPtrCurve: 1
    pptrCurveMapping:
    - {fileID: 21300000, guid: 7a856f20859662648953e8f52cce5bbf, type: 3}
    - {fileID: 21300000, guid: 84ffce779ea9acc4e94e07322451c7c6, type: 3}
    - {fileID: 21300000, guid: 22c3f50deaa2ed14fb4591fa7f48c907, type: 3}
    - {fileID: 21300000, guid: 8f216ec4a02a7284ea2779ca1469b0da, type: 3}
    - {fileID: 21300000, guid: 9106d760633e8994295c4f1cd530da4b, type: 3}
    - {fileID: 21300000, guid: b329138446616d64db9268e718696d9c, type: 3}
    - {fileID: 21300000, guid: 80130240d6f201d45831471ab6315e66, type: 3}
    - {fileID: 21300000, guid: e37ac4a408b87c34eb7fc7113ec1c2e3, type: 3}
    - {fileID: 21300000, guid: fa705345334b74f428dc4dbb57000f52, type: 3}
    - {fileID: 21300000, guid: f3f4bd331ca0a5c438348accddaf370a, type: 3}
  m_AnimationClipSettings:
    serializedVersion: 2
    m_AdditiveReferencePoseClip: {fileID: 0}
    m_AdditiveReferencePoseTime: 0
    m_StartTime: 0
    m_StopTime: 0.5
    m_OrientationOffsetY: 0
    m_Level: 0
    m_CycleOffset: 0
    m_HasAdditiveReferencePose: 0
    m_LoopTime: 1
    m_LoopBlend: 0
    m_LoopBlendOrientation: 0
    m_LoopBlendPositionY: 0
    m_LoopBlendPositionXZ: 0
    m_KeepOriginalOrientation: 0
    m_KeepOriginalPositionY: 1
    m_KeepOriginalPositionXZ: 0
    m_HeightFromFeet: 0
    m_Mirror: 0
  m_EditorCurves: []
  m_EulerEditorCurves: []
  m_HasGenericRootTransform: 0
  m_HasMotionFloatCurves: 0
  m_GenerateMotionCurves: 0
  m_Events: []
