%YAML 1.1
%TAG !u! tag:unity3d.com,2011:
--- !u!74 &7400000
AnimationClip:
  m_ObjectHideFlags: 0
  m_CorrespondingSourceObject: {fileID: 0}
  m_PrefabInternal: {fileID: 0}
  m_Name: cat_walking
  serializedVersion: 6
  m_Legacy: 0
  m_Compressed: 0
  m_UseHighQualityCurve: 1
  m_RotationCurves: []
  m_CompressedRotationCurves: []
  m_EulerCurves: []
  m_PositionCurves: []
  m_ScaleCurves: []
  m_FloatCurves: []
  m_PPtrCurves:
  - curve:
    - time: 0
      value: {fileID: 21300000, guid: a3d392087eb46fb4096789eaed3196d0, type: 3}
    - time: 0.05
      value: {fileID: 21300000, guid: fbc6b654cee573945acf477e26325157, type: 3}
    - time: 0.1
      value: {fileID: 21300000, guid: 918efa09d1cbce44fbaceb432a1ef8cf, type: 3}
    - time: 0.15
      value: {fileID: 21300000, guid: 167c592457897cc469af83eb785d5fb2, type: 3}
    - time: 0.2
      value: {fileID: 21300000, guid: d8308bfa9205dbb4d8459d086316a916, type: 3}
    - time: 0.25
      value: {fileID: 21300000, guid: 992cc556cc8750749a1bc23c96d1041c, type: 3}
    - time: 0.3
      value: {fileID: 21300000, guid: 01e58c701c7821f4e869d7122c1ce0d2, type: 3}
    - time: 0.35
      value: {fileID: 21300000, guid: 02741c2a73400b04bb17f5380c9f53c9, type: 3}
    - time: 0.4
      value: {fileID: 21300000, guid: ea77558562282b344add3e2ce8bc4946, type: 3}
    - time: 0.45
      value: {fileID: 21300000, guid: 5fbf6ad5021a2f14da61498b711af121, type: 3}
    attribute: m_Sprite
    path: 
    classID: 212
    script: {fileID: 0}
  m_SampleRate: 20
  m_WrapMode: 0
  m_Bounds:
    m_Center: {x: 0, y: 0, z: 0}
    m_Extent: {x: 0, y: 0, z: 0}
  m_ClipBindingConstant:
    genericBindings:
    - serializedVersion: 2
      path: 0
      attribute: 0
      script: {fileID: 0}
      typeID: 212
      customType: 23
      isPPtrCurve: 1
    pptrCurveMapping:
    - {fileID: 21300000, guid: a3d392087eb46fb4096789eaed3196d0, type: 3}
    - {fileID: 21300000, guid: fbc6b654cee573945acf477e26325157, type: 3}
    - {fileID: 21300000, guid: 918efa09d1cbce44fbaceb432a1ef8cf, type: 3}
    - {fileID: 21300000, guid: 167c592457897cc469af83eb785d5fb2, type: 3}
    - {fileID: 21300000, guid: d8308bfa9205dbb4d8459d086316a916, type: 3}
    - {fileID: 21300000, guid: 992cc556cc8750749a1bc23c96d1041c, type: 3}
    - {fileID: 21300000, guid: 01e58c701c7821f4e869d7122c1ce0d2, type: 3}
    - {fileID: 21300000, guid: 02741c2a73400b04bb17f5380c9f53c9, type: 3}
    - {fileID: 21300000, guid: ea77558562282b344add3e2ce8bc4946, type: 3}
    - {fileID: 21300000, guid: 5fbf6ad5021a2f14da61498b711af121, type: 3}
  m_AnimationClipSettings:
    serializedVersion: 2
    m_AdditiveReferencePoseClip: {fileID: 0}
    m_AdditiveReferencePoseTime: 0
    m_StartTime: 0
    m_StopTime: 0.5
    m_OrientationOffsetY: 0
    m_Level: 0
    m_CycleOffset: 0
    m_HasAdditiveReferencePose: 0
    m_LoopTime: 1
    m_LoopBlend: 0
    m_LoopBlendOrientation: 0
    m_LoopBlendPositionY: 0
    m_LoopBlendPositionXZ: 0
    m_KeepOriginalOrientation: 0
    m_KeepOriginalPositionY: 1
    m_KeepOriginalPositionXZ: 0
    m_HeightFromFeet: 0
    m_Mirror: 0
  m_EditorCurves: []
  m_EulerEditorCurves: []
  m_HasGenericRootTransform: 0
  m_HasMotionFloatCurves: 0
  m_GenerateMotionCurves: 0
  m_Events: []
